{
	"info": {
		"_postman_id": "b1903e00-5aa5-40a8-97ea-eed7219d21f7",
		"name": "booking API",
		"schema": "https://schema.getpostman.com/json/collection/v2.1.0/collection.json"
	},
	"item": [
		{
			"name": "REST",
			"item": [
				{
					"name": "REST - Email Exists",
					"request": {
						"method": "POST",
						"header": [],
						"body": {
							"mode": "urlencoded",
							"urlencoded": [
								{
									"key": "email",
									"value": "juandelacruz@mail.com",
									"type": "text"
								}
							]
						},
						"url": {
							"raw": "{{rest_url}}/users/email-exists",
							"host": [
								"{{rest_url}}"
							],
							"path": [
								"users",
								"email-exists"
							]
						}
					},
					"response": []
				},
				{
					"name": "REST - Register",
					"request": {
						"method": "POST",
						"header": [],
						"body": {
							"mode": "urlencoded",
							"urlencoded": [
								{
									"key": "firstName",
									"value": "Juan",
									"type": "text"
								},
								{
									"key": "lastName",
									"value": "Dela Cruz",
									"type": "text"
								},
								{
									"key": "email",
									"value": "juandelacruz@mail.com",
									"type": "text"
								},
								{
									"key": "password",
									"value": "juandelacruz@mail.com",
									"type": "text"
								},
								{
									"key": "mobileNo",
									"value": "09214563212",
									"type": "text"
								}
							]
						},
						"url": {
							"raw": "{{rest_url}}/api/users",
							"host": [
								"{{rest_url}}"
							],
							"path": [
								"api",
								"users"
							]
						}
					},
					"response": []
				},
				{
					"name": "REST - Add Course",
					"request": {
						"auth": {
							"type": "bearer",
							"bearer": [
								{
									"key": "token",
									"value": "eyJhbGciOiJIUzI1NiIsInR5cCI6IkpXVCJ9.eyJpZCI6IjVmYThmYjRlZTFlMzdhYmY4M2Q4YWNjOSIsImVtYWlsIjoianVhbmRlbGFjcnV6QG1haWwuY29tIiwiaXNBZG1pbiI6ZmFsc2UsImlhdCI6MTYwNDkwOTkzMH0.7NiA0lATiyJQH-Bt9xHDwMng94D3wiczh6tJwI3-2vE",
									"type": "string"
								}
							]
						},
						"method": "POST",
						"header": [],
						"body": {
							"mode": "urlencoded",
							"urlencoded": [
								{
									"key": "name",
									"value": "Full-Stack JavaScript Web Development",
									"type": "text"
								},
								{
									"key": "description",
									"value": "A three-month course on full-stack web development using JavaScript.",
									"type": "text"
								},
								{
									"key": "price",
									"value": "20000",
									"type": "text"
								}
							]
						},
						"url": {
							"raw": "http://localhost:4000/api/courses",
							"protocol": "http",
							"host": [
								"localhost"
							],
							"port": "4000",
							"path": [
								"api",
								"courses"
							]
						}
					},
					"response": []
				},
				{
					"name": "REST - Get All Courses",
					"protocolProfileBehavior": {
						"disableBodyPruning": true
					},
					"request": {
						"method": "GET",
						"header": [],
						"body": {
							"mode": "urlencoded",
							"urlencoded": []
						},
						"url": {
							"raw": "http://localhost:4000/api/courses",
							"protocol": "http",
							"host": [
								"localhost"
							],
							"port": "4000",
							"path": [
								"api",
								"courses"
							]
						}
					},
					"response": []
				},
				{
					"name": "REST - Get Course",
					"protocolProfileBehavior": {
						"disableBodyPruning": true
					},
					"request": {
						"method": "GET",
						"header": [],
						"body": {
							"mode": "urlencoded",
							"urlencoded": []
						},
						"url": {
							"raw": "http://localhost:4000/api/courses/5ecf99d2dd914d7355fd03a4",
							"protocol": "http",
							"host": [
								"localhost"
							],
							"port": "4000",
							"path": [
								"api",
								"courses",
								"5ecf99d2dd914d7355fd03a4"
							]
						}
					},
					"response": []
				},
				{
					"name": "REST - Update Course",
					"request": {
						"auth": {
							"type": "bearer",
							"bearer": [
								{
									"key": "token",
									"value": "eyJhbGciOiJIUzI1NiIsInR5cCI6IkpXVCJ9.eyJpZCI6IjVmYThmYjRlZTFlMzdhYmY4M2Q4YWNjOSIsImVtYWlsIjoianVhbmRlbGFjcnV6QG1haWwuY29tIiwiaXNBZG1pbiI6ZmFsc2UsImlhdCI6MTYwNDkwOTkzMH0.7NiA0lATiyJQH-Bt9xHDwMng94D3wiczh6tJwI3-2vE",
									"type": "string"
								}
							]
						},
						"method": "PUT",
						"header": [],
						"body": {
							"mode": "urlencoded",
							"urlencoded": [
								{
									"key": "name",
									"value": "Full-Stack JavaScript Web Developments",
									"type": "text"
								},
								{
									"key": "description",
									"value": "A three-month course on full-stack web development using JavaScript.",
									"type": "text"
								},
								{
									"key": "price",
									"value": "20000",
									"type": "text"
								},
								{
									"key": "courseId",
									"value": "5ecf99d2dd914d7355fd03a4",
									"type": "text"
								}
							]
						},
						"url": {
							"raw": "http://localhost:4000/api/courses",
							"protocol": "http",
							"host": [
								"localhost"
							],
							"port": "4000",
							"path": [
								"api",
								"courses"
							]
						}
					},
					"response": []
				},
				{
					"name": "REST - Archive Course",
					"request": {
						"method": "DELETE",
						"header": [],
						"body": {
							"mode": "urlencoded",
							"urlencoded": []
						},
						"url": {
							"raw": "http://localhost:4000/api/courses/5ecf99d2dd914d7355fd03a4",
							"protocol": "http",
							"host": [
								"localhost"
							],
							"port": "4000",
							"path": [
								"api",
								"courses",
								"5ecf99d2dd914d7355fd03a4"
							]
						}
					},
					"response": []
				},
				{
					"name": "REST - Login",
					"request": {
						"method": "POST",
						"header": [],
						"body": {
							"mode": "urlencoded",
							"urlencoded": [
								{
									"key": "email",
									"value": "juandelacruz@mail.com",
									"type": "text"
								},
								{
									"key": "password",
									"value": "juandelacruz@mail.com",
									"type": "text"
								}
							]
						},
						"url": {
							"raw": "{{rest_url}}/api/users/login",
							"host": [
								"{{rest_url}}"
							],
							"path": [
								"api",
								"users",
								"login"
							]
						}
					},
					"response": []
				},
				{
					"name": "REST - Get User Details",
					"protocolProfileBehavior": {
						"disableBodyPruning": true
					},
					"request": {
						"auth": {
							"type": "bearer",
							"bearer": [
								{
									"key": "token",
									"value": "eyJhbGciOiJIUzI1NiIsInR5cCI6IkpXVCJ9.eyJpZCI6IjVlYzQxYjczMTFkZGZjMWFjYTM5OTY5NCIsImVtYWlsIjoianVhbmRlbGFjcnV6QG1haWwuY29tIiwiaXNBZG1pbiI6ZmFsc2UsImlhdCI6MTU4OTk3NTEzNn0.l8QCVAjoJ8dOSz-NNrVUGLrC3fVzYBC5ekogjq39LyY",
									"type": "string"
								}
							]
						},
						"method": "GET",
						"header": [],
						"body": {
							"mode": "urlencoded",
							"urlencoded": []
						},
						"url": {
							"raw": "{{rest_url}}/users/details",
							"host": [
								"{{rest_url}}"
							],
							"path": [
								"users",
								"details"
							]
						}
					},
					"response": []
				},
				{
					"name": "REST - Enroll",
					"request": {
						"auth": {
							"type": "bearer",
							"bearer": [
								{
									"key": "token",
									"value": "eyJhbGciOiJIUzI1NiIsInR5cCI6IkpXVCJ9.eyJpZCI6IjVlYzQxYjczMTFkZGZjMWFjYTM5OTY5NCIsImVtYWlsIjoianVhbmRlbGFjcnV6QG1haWwuY29tIiwiaXNBZG1pbiI6ZmFsc2UsImlhdCI6MTU4OTk3NTEzNn0.l8QCVAjoJ8dOSz-NNrVUGLrC3fVzYBC5ekogjq39LyY",
									"type": "string"
								}
							]
						},
						"method": "POST",
						"header": [],
						"body": {
							"mode": "urlencoded",
							"urlencoded": [
								{
									"key": "courseId",
									"value": "5ec4d717f2314f4a36cfdb77",
									"type": "text"
								}
							]
						},
						"url": {
							"raw": "{{rest_url}}/users/enroll",
							"host": [
								"{{rest_url}}"
							],
							"path": [
								"users",
								"enroll"
							]
						}
					},
					"response": []
				}
			],
			"protocolProfileBehavior": {}
		}
	],
	"event": [
		{
			"listen": "prerequest",
			"script": {
				"id": "f9583383-3769-4cdb-96ec-e5b0ddc6a31d",
				"type": "text/javascript",
				"exec": [
					""
				]
			}
		},
		{
			"listen": "test",
			"script": {
				"id": "137f189e-e1f6-4dec-82d8-e05865eee5f7",
				"type": "text/javascript",
				"exec": [
					""
				]
			}
		}
	],
	"variable": [
		{
			"id": "c959ef1a-96bd-4efb-81c0-b6b386b2b098",
			"key": "graphql_url",
			"value": "http://localhost:4000/graphql",
			"type": "string"
		},
		{
			"id": "30880c73-6ff8-4a71-a2c9-0fe94c7a2109",
			"key": "rest_url",
			"value": "http://localhost:4000",
			"type": "string"
		}
	],
	"protocolProfileBehavior": {}
}